<?xml version="1.0" encoding="utf-8"?>
<!-- Generator: Adobe Illustrator 18.1.1, SVG Export Plug-In . SVG Version: 6.00 Build 0)  -->
<svg version="1.1" id="Layer_1" xmlns="http://www.w3.org/2000/svg" xmlns:xlink="http://www.w3.org/1999/xlink" x="0px" y="0px"
	 width="257.1px" height="297.3px" viewBox="0 0 257.1 297.3" enable-background="new 0 0 257.1 297.3" xml:space="preserve">
<path fill="#E4EBEE" stroke="#EE4C2E" stroke-width="2" stroke-linejoin="round" stroke-miterlimit="10" d="M256.1,210.9v30.4
	c0,7.2-15.9,13-35.5,13c-19.6,0-35.5-5.8-35.5-13v-30.4C185.2,210.9,257.2,209.8,256.1,210.9z"/>
<path fill="#E4EBEE" stroke="#EE4C2E" stroke-width="2" stroke-linejoin="round" stroke-miterlimit="10" d="M256.1,180.5v30.4
	c0,7.2-15.9,13-35.5,13c-19.6,0-35.5-5.8-35.5-13v-30.4"/>
<path fill="#E4EBEE" stroke="#EE4C2E" stroke-width="2" stroke-linejoin="round" stroke-miterlimit="10" d="M256.1,150.1v30.4
	c0,7.2-15.9,13-35.5,13c-19.6,0-35.5-5.8-35.5-13v-30.4C185.2,150.1,257.2,149,256.1,150.1z"/>
<path fill="#E4EBEE" stroke="#EE4C2E" stroke-width="2" stroke-linejoin="round" stroke-miterlimit="10" d="M256.1,119.7v30.4
	c0,7.2-15.9,13-35.5,13c-19.6,0-35.5-5.8-35.5-13v-30.4"/>
<path fill="#E4EBEE" stroke="#EE4C2E" stroke-width="2" stroke-linejoin="round" stroke-miterlimit="10" d="M256.1,89.4v30.4
	c0,7.2-15.9,13-35.5,13c-19.6,0-35.5-5.8-35.5-13V89.4C185.2,89.4,257.2,88.3,256.1,89.4z"/>
<path fill="#E4EBEE" stroke="#EE4C2E" stroke-width="2" stroke-linejoin="round" stroke-miterlimit="10" d="M256.1,59v30.4
	c0,7.2-15.9,13-35.5,13c-19.6,0-35.5-5.8-35.5-13V59"/>
<ellipse fill="#E4EBEE" stroke="#EE4C2E" stroke-width="2" stroke-linejoin="round" stroke-miterlimit="10" cx="220.6" cy="59.1" rx="35.5" ry="13"/>
<path fill="none" stroke="#184066" stroke-width="9.8421" stroke-miterlimit="10" d="M118.4,297.3"/>
<path fill="none" stroke="#184066" stroke-width="9.8421" stroke-miterlimit="10" d="M118.4-148"/>
<g>
	<g>
		<circle fill="#184066" cx="118.8" cy="133.3" r="12.8"/>
	</g>
	<text transform="matrix(1 0 0 1 116.3465 138.6958)" fill="#FFFFFF" font-family="'Circular-Black'" font-size="16.952">i</text>
</g>
<path fill="#E4EBEE" stroke="#184066" stroke-width="2" stroke-linejoin="round" stroke-miterlimit="10" d="M134.4,226.6v31.7
	c0,7.5,16.5,13.6,36.9,13.6c20.4,0,36.9-6.1,36.9-13.6v-31.7C208.3,226.6,133.3,225.4,134.4,226.6z"/>
<ellipse fill="#DCEEE2" stroke="#184066" stroke-width="2" stroke-linejoin="round" stroke-miterlimit="10" cx="171.4" cy="226.6" rx="36.9" ry="13.6"/>
<path fill="#E4EBEE" stroke="#184066" stroke-width="2" stroke-linejoin="round" stroke-miterlimit="10" d="M134.4,194.9v31.7
	c0,7.5,16.5,13.6,36.9,13.6c20.4,0,36.9-6.1,36.9-13.6v-31.7"/>
<ellipse fill="#E4EBEE" stroke="#184066" stroke-width="2" stroke-linejoin="round" stroke-miterlimit="10" cx="171.4" cy="194.4" rx="36.9" ry="13.6"/>
<polygon fill="#E4EBEE" points="61.9,167.8 64.2,175.1 64.2,184.3 59.4,191.6 54.6,195.7 55.8,200.6 57.8,202.5 64.1,199.1 
	69.9,193.7 73.9,187.3 76,179.2 75.1,169.4 74.4,166.4 "/>
<g>
	<path fill="#FFFFFF" d="M118.5,161.9c-43.9,0-79.7-35.8-79.7-79.7S74.6,2.5,118.5,2.5c43.9,0,79.7,35.8,79.7,79.7
		S162.5,161.9,118.5,161.9z"/>
	<g>
		<path fill="#184066" d="M118.5,5c42.6,0,77.2,34.6,77.2,77.2s-34.6,77.2-77.2,77.2s-77.2-34.6-77.2-77.2S75.9,5,118.5,5 M118.5,0
			C73.2,0,36.3,36.9,36.3,82.2s36.9,82.2,82.2,82.2s82.2-36.9,82.2-82.2S163.9,0,118.5,0L118.5,0z"/>
	</g>
</g>
<path fill="#E4EBEE" stroke="#184066" stroke-width="2" stroke-linejoin="round" stroke-miterlimit="10" d="M70.8,243.3v29.9
	c0,7.1-15.6,12.8-34.9,12.8c-19.3,0-34.9-5.7-34.9-12.8v-29.9C1,243.3,71.9,242.3,70.8,243.3z"/>
<ellipse fill="#FFFFFF" stroke="#231F20" stroke-width="2" stroke-linejoin="round" stroke-miterlimit="10" cx="35.9" cy="243.3" rx="34.9" ry="12.8"/>
<path fill="#E4EBEE" stroke="#184066" stroke-width="2" stroke-linejoin="round" stroke-miterlimit="10" d="M70.8,213.4v29.9
	c0,7.1-15.6,12.8-34.9,12.8c-19.3,0-34.9-5.7-34.9-12.8v-29.9"/>
<ellipse fill="#E4EBEE" stroke="#184066" stroke-width="2" stroke-linejoin="round" stroke-miterlimit="10" cx="35.9" cy="212.9" rx="34.9" ry="12.8"/>
<path fill="#DCEEE2" d="M28.2,193.7c0.8,1.7,2.6,4.2,3.1,4.8c1.6-0.6,4.5-2.3,4.5-2.3c-1.9-2.5-3.2-5.8-3.4-6.4
	C29.4,191.3,28.2,193.7,28.2,193.7z"/>
<path fill="#E4EBEE" stroke="#EE4C2E" stroke-width="2" stroke-linejoin="round" stroke-miterlimit="10" d="M93.6,285.5
	c-27.7,10.5-48.8-45.3-21.1-55.8l19.1-7.2l21.1,55.8L93.6,285.5z"/>
<ellipse transform="matrix(0.9353 -0.3538 0.3538 0.9353 -82.0722 52.2484)" fill="#E4EBEE" stroke="#EE4C2E" stroke-width="2" stroke-linejoin="round" stroke-miterlimit="10" cx="101.9" cy="250.6" rx="23" ry="29.8"/>
<g>
	<defs>
		<path id="SVGID_1_" d="M1,212.9c0,3.8,4.8,6.2,12.1,8.5c6.2,2,13.2,3.3,22.1,3.3c6.1,0,13.4-0.8,18.4-1.8
			c10.8-2.2,17.2-5.1,17.2-9.9c0-1-0.3-2.1-1-3c-0.6-0.9,22.7-13.2,21.8-17.3c-2.2-10.6,8.9-61.8,4.7-79.3
			c-4.8-19.8-64.8-22.3-72.2-22.3c-8.2,0-4.8,51-11.8,75.6c-5.5,19.3-6.5,39.6-8.8,41.6C1.9,209.6,1,211.2,1,212.9z"/>
	</defs>
	<clipPath id="SVGID_2_">
		<use xlink:href="#SVGID_1_"  overflow="visible"/>
	</clipPath>
	<path clip-path="url(#SVGID_2_)" fill="none" stroke="#EE4C2E" stroke-width="2" stroke-miterlimit="10" d="M74.4,166.4
		c3.5,12.7,0.9,31.4-21.6,37.8"/>
	<path clip-path="url(#SVGID_2_)" fill="none" stroke="#EE4C2E" stroke-width="2" stroke-miterlimit="10" d="M61.5,166
		c5.9,9.7,3.7,25.1-7.3,30"/>
	
		<path clip-path="url(#SVGID_2_)" fill="#E4EBEE" stroke="#EE4C2E" stroke-width="2" stroke-linejoin="round" stroke-miterlimit="10" d="
		M25.1,114.7L18,143.7c-1.7,6.9,12.2,16.2,30.9,20.7c18.7,4.6,35.3,2.7,37-4.2l7.1-29.1"/>
	
		<ellipse transform="matrix(0.9717 0.2362 -0.2362 0.9717 30.5889 -10.5057)" clip-path="url(#SVGID_2_)" fill="#E4EBEE" stroke="#EE4C2E" stroke-width="2" stroke-linejoin="round" stroke-miterlimit="10" cx="59.2" cy="122.4" rx="34.9" ry="12.8"/>
	
		<circle clip-path="url(#SVGID_2_)" fill="#E4EBEE" stroke="#EE4C2E" stroke-width="2" stroke-miterlimit="10" cx="31.7" cy="158.9" r="7.2"/>
	<path clip-path="url(#SVGID_2_)" fill="#E4EBEE" stroke="#EE4C2E" stroke-width="2" stroke-miterlimit="10" d="M53.5,196.9
		c1.5-1.6,2.4-3.7,2.4-6c0-4.9-4-8.9-8.9-8.9c-4.9,0-8.9,4-8.9,8.9c0,0.7,0.1,1.4,0.3,2.1c-21.6,5.3-25.3,32.3-26,41.1
		c-0.7,8.8,5.7,14.5,17.5,9c10.8-5,21.5-15.8,26.1-29.6C58.4,206.3,57,200.5,53.5,196.9z"/>
	<circle clip-path="url(#SVGID_2_)" fill="#EE4C2E" cx="50.2" cy="186.4" r="1.6"/>
	<path clip-path="url(#SVGID_2_)" fill="none" stroke="#EE4C2E" stroke-width="2" stroke-miterlimit="10" d="M54.2,185.9
		c2,0.8,4,0,5.1-1.3"/>
	<path clip-path="url(#SVGID_2_)" fill="none" stroke="#EE4C2E" stroke-width="2" stroke-miterlimit="10" d="M36.3,164.2
		c-6.2,17.8-2.9,27.9,1.9,32.3"/>
	<path clip-path="url(#SVGID_2_)" fill="none" stroke="#EE4C2E" stroke-width="2" stroke-miterlimit="10" d="M25.1,161.2
		c-2.8,12.6-2.6,29.8,5.3,38.3"/>
	<polyline clip-path="url(#SVGID_2_)" fill="#E4EBEE" stroke="#EE4C2E" stroke-width="2" stroke-miterlimit="10" points="
		40.3,184.1 37.2,174.7 43.3,177 47.4,171.3 50.5,180.7 	"/>
	
		<line clip-path="url(#SVGID_2_)" fill="none" stroke="#EE4C2E" stroke-width="2" stroke-miterlimit="10" x1="57.1" y1="179" x2="35.4" y2="185.7"/>
	<path clip-path="url(#SVGID_2_)" fill="none" stroke="#EE4C2E" stroke-width="1.5" stroke-miterlimit="10" d="M47.3,189.8
		c2.4,2,6.1,3.1,8.7,1.3"/>
</g>
<path fill="#E4EBEE" d="M27.5,192.8c1.3,3.3,2.8,4.9,3.9,6.2c0.9-0.1,5.5-2.3,5.5-2.3c-1.9-2.4-4.4-7-4.8-9.5
	C29.7,188.5,27.5,192.8,27.5,192.8z"/>
</svg>
