<?xml version="1.0" encoding="utf-8"?>
<!-- Generator: Adobe Illustrator 18.1.1, SVG Export Plug-In . SVG Version: 6.00 Build 0)  -->
<svg version="1.1" id="Layer_1" xmlns="http://www.w3.org/2000/svg" xmlns:xlink="http://www.w3.org/1999/xlink" x="0px" y="0px"
	 width="159.4px" height="497.5px" viewBox="0 0 159.4 497.5" enable-background="new 0 0 159.4 497.5" xml:space="preserve">
<path fill="none" stroke="#184066" stroke-width="9.8421" stroke-miterlimit="10" d="M-32.2,328.6"/>
<polygon fill="#EE4C2E" points="66.1,52.3 39.1,52.3 39.3,62 40,68.5 44.6,76.3 51.7,79.1 59.5,77.4 63.5,74.2 65.2,67.7 65.9,58.8 
	"/>
<circle fill="#FFFFFF" cx="58.7" cy="68.5" r="2.1"/>
<circle fill="#FFFFFF" cx="51.1" cy="63.3" r="2.1"/>
<circle fill="#FFFFFF" cx="59.1" cy="57.1" r="2.1"/>
<circle fill="#FFFFFF" cx="49.9" cy="71.3" r="2.1"/>
<polyline fill="none" stroke="#59ADDF" stroke-width="4" stroke-linejoin="round" stroke-miterlimit="10" points="7.7,474 
	51.5,383.5 97.6,405.9 53.8,496.4 "/>
<polyline fill="none" stroke="#59ADDF" stroke-width="4" stroke-linejoin="round" stroke-miterlimit="10" points="53.8,496.4 
	36.9,472.4 7.7,474 "/>
<polyline fill="none" stroke="#59ADDF" stroke-width="4" stroke-linejoin="round" stroke-miterlimit="10" points="151.6,474 
	107.8,383.5 61.7,405.9 105.5,496.4 "/>
<polyline fill="none" stroke="#59ADDF" stroke-width="4" stroke-linejoin="round" stroke-miterlimit="10" points="105.5,496.4 
	122.3,472.4 151.6,474 "/>
<g>
	<path fill="#FFFFFF" d="M2.5,362.4c0-42.6,34.6-77.2,77.2-77.2s77.2,34.6,77.2,77.2"/>
	<path fill="none" stroke="#184066" stroke-width="5.0086" stroke-linejoin="round" stroke-miterlimit="10" d="M2.5,362.4
		c0-42.6,34.6-77.2,77.2-77.2s77.2,34.6,77.2,77.2"/>
</g>
<path fill="#FFFFFF" stroke="#184066" stroke-width="5.0086" stroke-linejoin="round" stroke-miterlimit="10" d="M156.9,362.4
	c0,42.6-34.6,77.2-77.2,77.2S2.5,405.1,2.5,362.4"/>
<circle fill="#EE4C2E" cx="56.3" cy="44.2" r="2.1"/>
<circle fill="#EE4C2E" cx="51" cy="38.3" r="2.1"/>
<circle fill="#EE4C2E" cx="51.3" cy="24.1" r="2.1"/>
<circle fill="#EE4C2E" cx="57.7" cy="17.5" r="2.1"/>
<circle fill="#EE4C2E" cx="43.3" cy="2.1" r="2.1"/>
<circle fill="#EE4C2E" cx="53.4" cy="10.1" r="2.1"/>
<path fill="none" stroke="#EE4C2E" stroke-width="2" stroke-linejoin="round" stroke-miterlimit="10" d="M63.3,240.1l8.8,12.2
	c1,1.3,1.5,2.9,1.5,4.6v5.5c0,4.3-3.5,7.8-7.8,7.8h-9.4v9.2h46.3v-9.2h-9.4c-4.3,0-7.8-3.5-7.8-7.8v-5.5c0-1.6,0.5-3.2,1.5-4.6
	l8.8-12.2"/>
<path fill="none" stroke="#EE4C2E" stroke-width="2" stroke-linejoin="round" stroke-miterlimit="10" d="M77.7,126.5
	c-9.8-0.1-18.1-6.9-20.5-18.1l0.1,0.2l4.1-4.9l-0.5-9"/>
<path fill="none" stroke="#EE4C2E" stroke-width="2" stroke-linejoin="round" stroke-miterlimit="10" d="M70.9,134.1
	c-7.5-0.8-21.6-10.9-22-25.5l0,0.2l-3.9-5.1l0.9-9"/>
<path fill="none" stroke="#59ADDF" stroke-width="4" stroke-linejoin="round" stroke-miterlimit="10" d="M64.2,202.4"/>
<path fill="none" stroke="#EE4C2E" stroke-width="2" stroke-linejoin="round" stroke-miterlimit="10" d="M107.6,221.7
	c-3.8,30.4-52.6,30.6-56,0c-3.5-30.6-6.9-62.6-6.9-62.6h69.8C114.5,159.1,111.4,191.3,107.6,221.7z"/>
<g>
	<path fill="#E4EBEE" d="M79.6,174c-17.9,0-36.9-5.2-36.9-14.8c0-4.3,4.1-8.2,11.5-10.9c6.8-2.5,15.8-3.9,25.4-3.9
		c17.9,0,36.9,5.2,36.9,14.8c0,4.3-4.1,8.2-11.5,10.9C98.2,172.6,89.2,174,79.6,174z"/>
	<g>
		<path fill="#59ADDF" d="M79.6,146.4c19.3,0,34.9,5.7,34.9,12.8c0,7.1-15.6,12.8-34.9,12.8c-19.3,0-34.9-5.7-34.9-12.8
			C44.7,152.1,60.3,146.4,79.6,146.4 M79.6,142.4c-19.3,0-38.9,5.8-38.9,16.8S60.3,176,79.6,176c19.3,0,38.9-5.8,38.9-16.8
			S99,142.4,79.6,142.4L79.6,142.4z"/>
	</g>
</g>
<g>
	<defs>
		<path id="SVGID_1_" d="M44.8,158.8c0,5.2,9.3,13,35.1,13c20.9,0,34.7-5.8,34.7-12.4c4-5.1,11.6-0.9,8.6-3.3
			c40.3-40-25.4-98.2-44.4-98.2c-12.3,0-22.4,89.9-30.9,92.7C38,153.9,44.8,153.6,44.8,158.8z"/>
	</defs>
	<clipPath id="SVGID_2_">
		<use xlink:href="#SVGID_1_"  overflow="visible"/>
	</clipPath>
	
		<path clip-path="url(#SVGID_2_)" fill="#EE4C2E" stroke="#184066" stroke-width="2" stroke-linejoin="round" stroke-miterlimit="10" d="
		M54.4,158.2c-13.7,20.9,28.1,48.4,41.8,27.5l23.8-36.3l-41.8-27.5L54.4,158.2z"/>
	
		<line clip-path="url(#SVGID_2_)" fill="none" stroke="#FFFFFF" stroke-width="2" stroke-linejoin="round" stroke-miterlimit="10" x1="62.2" y1="147.1" x2="89.2" y2="151.1"/>
	
		<circle clip-path="url(#SVGID_2_)" fill="#FFFFFF" stroke="#184066" stroke-width="2" stroke-linejoin="round" stroke-miterlimit="10" cx="62.1" cy="146.8" r="5.3"/>
	
		<line clip-path="url(#SVGID_2_)" fill="none" stroke="#FFFFFF" stroke-width="2" stroke-linejoin="round" stroke-miterlimit="10" x1="94" y1="143.5" x2="75" y2="172.4"/>
	
		<circle clip-path="url(#SVGID_2_)" fill="#FFFFFF" stroke="#184066" stroke-width="2" stroke-linejoin="round" stroke-miterlimit="10" cx="75.1" cy="172.1" r="5.3"/>
	
		<line clip-path="url(#SVGID_2_)" fill="none" stroke="#EE4C2E" stroke-width="2" stroke-linejoin="round" stroke-miterlimit="10" x1="102.5" y1="107.7" x2="98.1" y2="105.1"/>
	
		<ellipse transform="matrix(-0.8356 -0.5494 0.5494 -0.8356 107.45 304.0078)" clip-path="url(#SVGID_2_)" fill="#E4EBEE" stroke="#184066" stroke-width="2" stroke-linejoin="round" stroke-miterlimit="10" cx="99.2" cy="135.9" rx="25.1" ry="9.2"/>
	
		<circle clip-path="url(#SVGID_2_)" fill="none" stroke="#184066" stroke-width="2" stroke-linejoin="round" stroke-miterlimit="10" cx="112.2" cy="115" r="12"/>
	<circle clip-path="url(#SVGID_2_)" fill="#154066" cx="109.7" cy="109.4" r="2"/>
	
		<path clip-path="url(#SVGID_2_)" fill="none" stroke="#184066" stroke-width="2" stroke-linejoin="round" stroke-miterlimit="10" d="
		M119.4,114.6c-2.7-1.4-5.4-6.4-2.6-10.5c-3.8-3.7-2.5-7.4,0.3-11.4"/>
	
		<line clip-path="url(#SVGID_2_)" fill="none" stroke="#184066" stroke-width="2" stroke-linejoin="round" stroke-miterlimit="10" x1="99.3" y1="135.9" x2="106.8" y2="124.5"/>
	
		<path clip-path="url(#SVGID_2_)" fill="none" stroke="#184066" stroke-width="2" stroke-linejoin="round" stroke-miterlimit="10" d="
		M109.7,116.7c-2.5,2.3-5.9,2.7-9.7,0.2"/>
</g>
<line fill="#E4EBEE" stroke="#EE4C2E" stroke-width="2" stroke-linejoin="round" stroke-miterlimit="10" x1="140.9" y1="91.1" x2="123.1" y2="110.2"/>
<line fill="#E4EBEE" stroke="#EE4C2E" stroke-width="2" stroke-linejoin="round" stroke-miterlimit="10" x1="115.3" y1="102.9" x2="133" y2="83.8"/>
<line fill="none" stroke="#EE4C2E" stroke-width="2" stroke-linejoin="round" stroke-miterlimit="10" x1="108.7" y1="97" x2="129.8" y2="116.6"/>
<path fill="none" stroke="#59ADDF" stroke-width="2" stroke-linejoin="round" stroke-miterlimit="10" d="M136.9,173.1
	c-0.1,14.7-7.9,33.3-28.5,43.9"/>
<path fill="none" stroke="#59ADDF" stroke-width="2" stroke-linejoin="round" stroke-miterlimit="10" d="M113,173
	c0,0,16.8,0.1,23.9,0.1"/>
<path fill="none" stroke="#59ADDF" stroke-width="2" stroke-linejoin="round" stroke-miterlimit="10" d="M44.7,173
	c0,0-16.8,0.1-23.9,0.1c0.1,14.7,7.9,33.3,28.5,43.9"/>
<g>
	<circle fill="#EE4C2E" cx="99.5" cy="135.5" r="2.3"/>
	<polygon fill="#EE4C2E" points="103.5,144.1 98.5,134.5 108.8,137.7 	"/>
	<polygon fill="#EE4C2E" points="95.7,126.7 100.6,136.3 90.3,133.1 	"/>
</g>
<line fill="none" stroke="#184066" stroke-width="2" stroke-linejoin="round" stroke-miterlimit="10" x1="52.5" y1="78.9" x2="52.5" y2="93.7"/>
<line fill="none" stroke="#184066" stroke-width="2" stroke-linejoin="round" stroke-miterlimit="10" x1="63.5" y1="93.9" x2="41.4" y2="93.9"/>
<path fill="none" stroke="#184066" stroke-width="2" stroke-linejoin="round" stroke-miterlimit="10" d="M40.2,69
	c1.7,13.4,23.2,13.5,24.7,0s3-36.2,3-36.2H37.1C37.1,32.8,38.5,55.6,40.2,69z"/>
<circle fill="#EE4C2E" cx="45.6" cy="46.9" r="2.1"/>
<path fill="none" stroke="#184066" stroke-width="2" stroke-linejoin="round" stroke-miterlimit="10" d="M40.2,69
	c1.7,13.4,23.2,13.5,24.7,0s3-36.2,3-36.2H37.1C37.1,32.8,38.5,55.6,40.2,69z"/>
<circle fill="#DCEEE2" stroke="#59ADDF" stroke-width="2" stroke-linejoin="round" stroke-miterlimit="10" cx="51.2" cy="217.3" r="2.8"/>
<circle fill="#E4EBEE" stroke="#59ADDF" stroke-width="2" stroke-linejoin="round" stroke-miterlimit="10" cx="108.2" cy="217.3" r="2.8"/>
<circle fill="#E4EBEE" stroke="#59ADDF" stroke-width="2" stroke-linejoin="round" stroke-miterlimit="10" cx="112.8" cy="172.9" r="2.8"/>
<circle fill="#E4EBEE" stroke="#59ADDF" stroke-width="2" stroke-linejoin="round" stroke-miterlimit="10" cx="45.5" cy="172.9" r="2.8"/>
</svg>
